﻿{
  "$schema": "https://json.schemastore.org/launchsettings.json",
  "profiles": {
    "BalanceReconciliationService": {
      "commandName": "Project",
      "dotnetRunMessages": true,
      "launchBrowser": true,
      "launchUrl": "swagger",
      "applicationUrl": "http://localhost:5035",
      "environmentVariables": {
        "ASPNETCORE_ENVIRONMENT": "Development"
      }
    }
  }
}
